%YAML 1.1
%TAG !u! tag:unity3d.com,2011:
--- !u!1 &1641971311212662
GameObject:
  m_ObjectHideFlags: 0
  m_CorrespondingSourceObject: {fileID: 0}
  m_PrefabInstance: {fileID: 0}
  m_PrefabAsset: {fileID: 0}
  serializedVersion: 6
  m_Component:
  - component: {fileID: 4889076547100212}
  - component: {fileID: 33413632727765270}
  - component: {fileID: 23496527303668514}
  - component: {fileID: 188078559}
  m_Layer: 0
  m_Name: StarSparrow10
  m_TagString: Untagged
  m_Icon: {fileID: 0}
  m_NavMeshLayer: 0
  m_StaticEditorFlags: 0
  m_IsActive: 1
--- !u!4 &4889076547100212
Transform:
  m_ObjectHideFlags: 0
  m_CorrespondingSourceObject: {fileID: 0}
  m_PrefabInstance: {fileID: 0}
  m_PrefabAsset: {fileID: 0}
  m_GameObject: {fileID: 1641971311212662}
  m_LocalRotation: {x: 0, y: 0, z: 0, w: 1}
  m_LocalPosition: {x: -0, y: 0, z: 0}
  m_LocalScale: {x: 2, y: 2, z: 2}
  m_ConstrainProportionsScale: 0
  m_Children:
  - {fileID: 465015774684110104}
  m_Father: {fileID: 0}
  m_RootOrder: 0
  m_LocalEulerAnglesHint: {x: 0, y: 0, z: 0}
--- !u!33 &33413632727765270
MeshFilter:
  m_ObjectHideFlags: 0
  m_CorrespondingSourceObject: {fileID: 0}
  m_PrefabInstance: {fileID: 0}
  m_PrefabAsset: {fileID: 0}
  m_GameObject: {fileID: 1641971311212662}
  m_Mesh: {fileID: 721608799864582647, guid: d32d4a735694a9f4f97a42117a1f919c, type: 3}
--- !u!23 &23496527303668514
MeshRenderer:
  m_ObjectHideFlags: 0
  m_CorrespondingSourceObject: {fileID: 0}
  m_PrefabInstance: {fileID: 0}
  m_PrefabAsset: {fileID: 0}
  m_GameObject: {fileID: 1641971311212662}
  m_Enabled: 1
  m_CastShadows: 1
  m_ReceiveShadows: 1
  m_DynamicOccludee: 1
  m_StaticShadowCaster: 0
  m_MotionVectors: 1
  m_LightProbeUsage: 1
  m_ReflectionProbeUsage: 1
  m_RayTracingMode: 2
  m_RayTraceProcedural: 0
  m_RenderingLayerMask: 1
  m_RendererPriority: 0
  m_Materials:
  - {fileID: 2100000, guid: d58bf68b17f9a4240aaeb5c200c9a12c, type: 2}
  m_StaticBatchInfo:
    firstSubMesh: 0
    subMeshCount: 0
  m_StaticBatchRoot: {fileID: 0}
  m_ProbeAnchor: {fileID: 0}
  m_LightProbeVolumeOverride: {fileID: 0}
  m_ScaleInLightmap: 1
  m_ReceiveGI: 1
  m_PreserveUVs: 0
  m_IgnoreNormalsForChartDetection: 0
  m_ImportantGI: 0
  m_StitchLightmapSeams: 0
  m_SelectedEditorRenderState: 3
  m_MinimumChartSize: 4
  m_AutoUVMaxDistance: 0.5
  m_AutoUVMaxAngle: 89
  m_LightmapParameters: {fileID: 0}
  m_SortingLayerID: 0
  m_SortingLayer: 0
  m_SortingOrder: 0
  m_AdditionalVertexStreams: {fileID: 0}
--- !u!114 &188078559
MonoBehaviour:
  m_ObjectHideFlags: 0
  m_CorrespondingSourceObject: {fileID: 0}
  m_PrefabInstance: {fileID: 0}
  m_PrefabAsset: {fileID: 0}
  m_GameObject: {fileID: 1641971311212662}
  m_Enabled: 1
  m_EditorHideFlags: 0
  m_Script: {fileID: 11500000, guid: cd661b627d4467740b7fc1d64fefe060, type: 3}
  m_Name: 
  m_EditorClassIdentifier: 
  deathVFX: {fileID: 4242375505198878459, guid: 4ef2d4817234d4447be058630ce36add, type: 3}
  hitVFX: {fileID: 4242375505198878459, guid: 8296c27d402b27b42813f9b0adf4535c, type: 3}
  killScore: 1000
  hitScore: 50
  health: 40
  safetyDestructionOffset: 0.5
--- !u!1 &346700972243676416
GameObject:
  m_ObjectHideFlags: 0
  m_CorrespondingSourceObject: {fileID: 0}
  m_PrefabInstance: {fileID: 0}
  m_PrefabAsset: {fileID: 0}
  serializedVersion: 6
  m_Component:
  - component: {fileID: 4593985771851065130}
  - component: {fileID: 5441071822631981155}
  m_Layer: 0
  m_Name: Collider10
  m_TagString: Untagged
  m_Icon: {fileID: 0}
  m_NavMeshLayer: 0
  m_StaticEditorFlags: 0
  m_IsActive: 1
--- !u!4 &4593985771851065130
Transform:
  m_ObjectHideFlags: 0
  m_CorrespondingSourceObject: {fileID: 0}
  m_PrefabInstance: {fileID: 0}
  m_PrefabAsset: {fileID: 0}
  m_GameObject: {fileID: 346700972243676416}
  m_LocalRotation: {x: 0.00000008146034, y: -0, z: -0, w: 1}
  m_LocalPosition: {x: -2.2609901, y: -1.7119021, z: -4.1144104}
  m_LocalScale: {x: 0.46270242, y: 0.46270186, z: 0.46270186}
  m_ConstrainProportionsScale: 0
  m_Children: []
  m_Father: {fileID: 465015774684110104}
  m_RootOrder: 9
  m_LocalEulerAnglesHint: {x: 0, y: 0, z: 0}
--- !u!65 &5441071822631981155
BoxCollider:
  m_ObjectHideFlags: 0
  m_CorrespondingSourceObject: {fileID: 0}
  m_PrefabInstance: {fileID: 0}
  m_PrefabAsset: {fileID: 0}
  m_GameObject: {fileID: 346700972243676416}
  m_Material: {fileID: 0}
  m_IsTrigger: 0
  m_Enabled: 1
  serializedVersion: 2
  m_Size: {x: 1.25, y: 1.25, z: 1.1412239}
  m_Center: {x: 0, y: -6.0850847e-18, z: -0.010450363}
--- !u!1 &600238146398420270
GameObject:
  m_ObjectHideFlags: 0
  m_CorrespondingSourceObject: {fileID: 0}
  m_PrefabInstance: {fileID: 0}
  m_PrefabAsset: {fileID: 0}
  serializedVersion: 6
  m_Component:
  - component: {fileID: 4993554858079887929}
  - component: {fileID: 1293548121920297524}
  m_Layer: 0
  m_Name: Collider4
  m_TagString: Untagged
  m_Icon: {fileID: 0}
  m_NavMeshLayer: 0
  m_StaticEditorFlags: 0
  m_IsActive: 1
--- !u!4 &4993554858079887929
Transform:
  m_ObjectHideFlags: 0
  m_CorrespondingSourceObject: {fileID: 0}
  m_PrefabInstance: {fileID: 0}
  m_PrefabAsset: {fileID: 0}
  m_GameObject: {fileID: 600238146398420270}
  m_LocalRotation: {x: 0.00000008146034, y: -0, z: -0, w: 1}
  m_LocalPosition: {x: 2.260994, y: -1.7118996, z: -2.8460388}
  m_LocalScale: {x: 0.6175516, y: 0.6175516, z: 0.6175516}
  m_ConstrainProportionsScale: 0
  m_Children: []
  m_Father: {fileID: 465015774684110104}
  m_RootOrder: 3
  m_LocalEulerAnglesHint: {x: 0, y: 0, z: 0}
--- !u!65 &1293548121920297524
BoxCollider:
  m_ObjectHideFlags: 0
  m_CorrespondingSourceObject: {fileID: 0}
  m_PrefabInstance: {fileID: 0}
  m_PrefabAsset: {fileID: 0}
  m_GameObject: {fileID: 600238146398420270}
  m_Material: {fileID: 0}
  m_IsTrigger: 0
  m_Enabled: 1
  serializedVersion: 2
  m_Size: {x: 1, y: 1, z: 2.8048668}
  m_Center: {x: 0, y: 7.2113e-17, z: -0.13104439}
--- !u!1 &618829461741305931
GameObject:
  m_ObjectHideFlags: 0
  m_CorrespondingSourceObject: {fileID: 0}
  m_PrefabInstance: {fileID: 0}
  m_PrefabAsset: {fileID: 0}
  serializedVersion: 6
  m_Component:
  - component: {fileID: 1135571869222452369}
  - component: {fileID: 393207210855762530}
  m_Layer: 0
  m_Name: Collider7
  m_TagString: Untagged
  m_Icon: {fileID: 0}
  m_NavMeshLayer: 0
  m_StaticEditorFlags: 0
  m_IsActive: 1
--- !u!4 &1135571869222452369
Transform:
  m_ObjectHideFlags: 0
  m_CorrespondingSourceObject: {fileID: 0}
  m_PrefabInstance: {fileID: 0}
  m_PrefabAsset: {fileID: 0}
  m_GameObject: {fileID: 618829461741305931}
  m_LocalRotation: {x: 0.00000008146034, y: -0, z: -0, w: 1}
  m_LocalPosition: {x: -3.190628, y: 1.2098361, z: -4.055374}
  m_LocalScale: {x: 0.70375, y: 0.70374995, z: 0.70374995}
  m_ConstrainProportionsScale: 0
  m_Children: []
  m_Father: {fileID: 465015774684110104}
  m_RootOrder: 6
  m_LocalEulerAnglesHint: {x: 0, y: 0, z: 0}
--- !u!65 &393207210855762530
BoxCollider:
  m_ObjectHideFlags: 0
  m_CorrespondingSourceObject: {fileID: 0}
  m_PrefabInstance: {fileID: 0}
  m_PrefabAsset: {fileID: 0}
  m_GameObject: {fileID: 618829461741305931}
  m_Material: {fileID: 0}
  m_IsTrigger: 0
  m_Enabled: 1
  serializedVersion: 2
  m_Size: {x: 1.0874813, y: 0.92567253, z: 3.7363143}
  m_Center: {x: 0, y: -0.037163734, z: 0.10587764}
--- !u!1 &1269574396802619081
GameObject:
  m_ObjectHideFlags: 0
  m_CorrespondingSourceObject: {fileID: 0}
  m_PrefabInstance: {fileID: 0}
  m_PrefabAsset: {fileID: 0}
  serializedVersion: 6
  m_Component:
  - component: {fileID: 1748129366446820744}
  - component: {fileID: 8536625042411245735}
  m_Layer: 0
  m_Name: Collider25
  m_TagString: Untagged
  m_Icon: {fileID: 0}
  m_NavMeshLayer: 0
  m_StaticEditorFlags: 0
  m_IsActive: 1
--- !u!4 &1748129366446820744
Transform:
  m_ObjectHideFlags: 0
  m_CorrespondingSourceObject: {fileID: 0}
  m_PrefabInstance: {fileID: 0}
  m_PrefabAsset: {fileID: 0}
  m_GameObject: {fileID: 1269574396802619081}
  m_LocalRotation: {x: 0.20637487, y: 0.2511093, z: -0.756053, w: -0.56809986}
  m_LocalPosition: {x: -2.8080006, y: -1.883, z: -3.7440033}
  m_LocalScale: {x: 0.35876012, y: 0.35876018, z: 0.35876006}
  m_ConstrainProportionsScale: 0
  m_Children: []
  m_Father: {fileID: 465015774684110104}
  m_RootOrder: 24
  m_LocalEulerAnglesHint: {x: -4.6070004, y: 0, z: 0}
--- !u!65 &8536625042411245735
BoxCollider:
  m_ObjectHideFlags: 0
  m_CorrespondingSourceObject: {fileID: 0}
  m_PrefabInstance: {fileID: 0}
  m_PrefabAsset: {fileID: 0}
  m_GameObject: {fileID: 1269574396802619081}
  m_Material: {fileID: 0}
  m_IsTrigger: 0
  m_Enabled: 1
  serializedVersion: 2
  m_Size: {x: 0.14684956, y: 2.9228678, z: 0.5748577}
  m_Center: {x: 0, y: -0.045166373, z: -0.12998867}
--- !u!1 &1315709556636181317
GameObject:
  m_ObjectHideFlags: 0
  m_CorrespondingSourceObject: {fileID: 0}
  m_PrefabInstance: {fileID: 0}
  m_PrefabAsset: {fileID: 0}
  serializedVersion: 6
  m_Component:
  - component: {fileID: 829231782632656891}
  - component: {fileID: 3511905604245253651}
  m_Layer: 0
  m_Name: Collider17
  m_TagString: Untagged
  m_Icon: {fileID: 0}
  m_NavMeshLayer: 0
  m_StaticEditorFlags: 0
  m_IsActive: 1
--- !u!4 &829231782632656891
Transform:
  m_ObjectHideFlags: 0
  m_CorrespondingSourceObject: {fileID: 0}
  m_PrefabInstance: {fileID: 0}
  m_PrefabAsset: {fileID: 0}
  m_GameObject: {fileID: 1315709556636181317}
  m_LocalRotation: {x: -0.18020065, y: -0.30976656, z: -0.8069696, w: -0.46943864}
  m_LocalPosition: {x: -1.2455616, y: -1.1238114, z: -2.0079956}
  m_LocalScale: {x: 0.66999996, y: 0.6699999, z: 0.6700001}
  m_ConstrainProportionsScale: 0
  m_Children: []
  m_Father: {fileID: 465015774684110104}
  m_RootOrder: 16
  m_LocalEulerAnglesHint: {x: 42, y: 0, z: 0}
--- !u!65 &3511905604245253651
BoxCollider:
  m_ObjectHideFlags: 0
  m_CorrespondingSourceObject: {fileID: 0}
  m_PrefabInstance: {fileID: 0}
  m_PrefabAsset: {fileID: 0}
  m_GameObject: {fileID: 1315709556636181317}
  m_Material: {fileID: 0}
  m_IsTrigger: 0
  m_Enabled: 1
  serializedVersion: 2
  m_Size: {x: 0.26414672, y: 1.2689642, z: 3.73}
  m_Center: {x: 0, y: -0.55046827, z: -0.5599999}
--- !u!1 &1366222270777971356
GameObject:
  m_ObjectHideFlags: 0
  m_CorrespondingSourceObject: {fileID: 0}
  m_PrefabInstance: {fileID: 0}
  m_PrefabAsset: {fileID: 0}
  serializedVersion: 6
  m_Component:
  - component: {fileID: 7113495582405091774}
  - component: {fileID: 2920252707750777827}
  m_Layer: 0
  m_Name: Collider14
  m_TagString: Untagged
  m_Icon: {fileID: 0}
  m_NavMeshLayer: 0
  m_StaticEditorFlags: 0
  m_IsActive: 1
--- !u!4 &7113495582405091774
Transform:
  m_ObjectHideFlags: 0
  m_CorrespondingSourceObject: {fileID: 0}
  m_PrefabInstance: {fileID: 0}
  m_PrefabAsset: {fileID: 0}
  m_GameObject: {fileID: 1366222270777971356}
  m_LocalRotation: {x: 0.1802007, y: -0.30976653, z: -0.8069695, w: 0.46943873}
  m_LocalPosition: {x: 1.2455616, y: -1.1238114, z: -2.0079956}
  m_LocalScale: {x: 0.66999996, y: 0.66999996, z: 0.67}
  m_ConstrainProportionsScale: 0
  m_Children: []
  m_Father: {fileID: 465015774684110104}
  m_RootOrder: 13
  m_LocalEulerAnglesHint: {x: 42, y: 0, z: 0}
--- !u!65 &2920252707750777827
BoxCollider:
  m_ObjectHideFlags: 0
  m_CorrespondingSourceObject: {fileID: 0}
  m_PrefabInstance: {fileID: 0}
  m_PrefabAsset: {fileID: 0}
  m_GameObject: {fileID: 1366222270777971356}
  m_Material: {fileID: 0}
  m_IsTrigger: 0
  m_Enabled: 1
  serializedVersion: 2
  m_Size: {x: 0.26414672, y: 1.2689642, z: 3.73}
  m_Center: {x: 0, y: -0.55046827, z: -0.5599999}
--- !u!1 &1641057582311381032
GameObject:
  m_ObjectHideFlags: 0
  m_CorrespondingSourceObject: {fileID: 0}
  m_PrefabInstance: {fileID: 0}
  m_PrefabAsset: {fileID: 0}
  serializedVersion: 6
  m_Component:
  - component: {fileID: 8535431266858891750}
  - component: {fileID: 2209821193034233743}
  m_Layer: 0
  m_Name: Collider11
  m_TagString: Untagged
  m_Icon: {fileID: 0}
  m_NavMeshLayer: 0
  m_StaticEditorFlags: 0
  m_IsActive: 1
--- !u!4 &8535431266858891750
Transform:
  m_ObjectHideFlags: 0
  m_CorrespondingSourceObject: {fileID: 0}
  m_PrefabInstance: {fileID: 0}
  m_PrefabAsset: {fileID: 0}
  m_GameObject: {fileID: 1641057582311381032}
  m_LocalRotation: {x: 0.00000005959166, y: 0.020873882, z: 0.0000000012441804, w: 0.99978215}
  m_LocalPosition: {x: 0.9424114, y: -0.6273419, z: 3.2189178}
  m_LocalScale: {x: 0.7201587, y: 0.7201588, z: 0.7201588}
  m_ConstrainProportionsScale: 0
  m_Children: []
  m_Father: {fileID: 465015774684110104}
  m_RootOrder: 10
  m_LocalEulerAnglesHint: {x: 0, y: 2.3920002, z: 0}
--- !u!65 &2209821193034233743
BoxCollider:
  m_ObjectHideFlags: 0
  m_CorrespondingSourceObject: {fileID: 0}
  m_PrefabInstance: {fileID: 0}
  m_PrefabAsset: {fileID: 0}
  m_GameObject: {fileID: 1641057582311381032}
  m_Material: {fileID: 0}
  m_IsTrigger: 0
  m_Enabled: 1
  serializedVersion: 2
  m_Size: {x: 0.44078326, y: 0.36600667, z: 4.1072435}
  m_Center: {x: -0.019566415, y: 0, z: 0.0034687521}
--- !u!1 &1958652707681499415
GameObject:
  m_ObjectHideFlags: 0
  m_CorrespondingSourceObject: {fileID: 0}
  m_PrefabInstance: {fileID: 0}
  m_PrefabAsset: {fileID: 0}
  serializedVersion: 6
  m_Component:
  - component: {fileID: 2444641575794703243}
  - component: {fileID: 8639905597429755255}
  m_Layer: 0
  m_Name: Collider13
  m_TagString: Untagged
  m_Icon: {fileID: 0}
  m_NavMeshLayer: 0
  m_StaticEditorFlags: 0
  m_IsActive: 1
--- !u!4 &2444641575794703243
Transform:
  m_ObjectHideFlags: 0
  m_CorrespondingSourceObject: {fileID: 0}
  m_PrefabInstance: {fileID: 0}
  m_PrefabAsset: {fileID: 0}
  m_GameObject: {fileID: 1958652707681499415}
  m_LocalRotation: {x: 0.000000036553597, y: 0.00000007066097, z: -0.8643813, w: 0.50283694}
  m_LocalPosition: {x: 1.2455616, y: -1.1238114, z: -2.0079956}
  m_LocalScale: {x: 0.67, y: 0.67, z: 0.67}
  m_ConstrainProportionsScale: 0
  m_Children: []
  m_Father: {fileID: 465015774684110104}
  m_RootOrder: 12
  m_LocalEulerAnglesHint: {x: 0, y: 0, z: 0}
--- !u!65 &8639905597429755255
BoxCollider:
  m_ObjectHideFlags: 0
  m_CorrespondingSourceObject: {fileID: 0}
  m_PrefabInstance: {fileID: 0}
  m_PrefabAsset: {fileID: 0}
  m_GameObject: {fileID: 1958652707681499415}
  m_Material: {fileID: 0}
  m_IsTrigger: 0
  m_Enabled: 1
  serializedVersion: 2
  m_Size: {x: 0.26414672, y: 3.2555733, z: 1.5417309}
  m_Center: {x: 0, y: -0.026695013, z: -2.1747923}
--- !u!1 &3068745478710190746
GameObject:
  m_ObjectHideFlags: 0
  m_CorrespondingSourceObject: {fileID: 0}
  m_PrefabInstance: {fileID: 0}
  m_PrefabAsset: {fileID: 0}
  serializedVersion: 6
  m_Component:
  - component: {fileID: 8822341714116422456}
  - component: {fileID: 5617411565967194776}
  m_Layer: 0
  m_Name: Collider16
  m_TagString: Untagged
  m_Icon: {fileID: 0}
  m_NavMeshLayer: 0
  m_StaticEditorFlags: 0
  m_IsActive: 1
--- !u!4 &8822341714116422456
Transform:
  m_ObjectHideFlags: 0
  m_CorrespondingSourceObject: {fileID: 0}
  m_PrefabInstance: {fileID: 0}
  m_PrefabAsset: {fileID: 0}
  m_GameObject: {fileID: 3068745478710190746}
  m_LocalRotation: {x: -0.000000036553587, y: 0.000000070660974, z: -0.8643814, w: -0.5028368}
  m_LocalPosition: {x: -1.2455616, y: -1.1238114, z: -2.0079956}
  m_LocalScale: {x: 0.6700001, y: 0.67000014, z: 0.66999996}
  m_ConstrainProportionsScale: 0
  m_Children: []
  m_Father: {fileID: 465015774684110104}
  m_RootOrder: 15
  m_LocalEulerAnglesHint: {x: 0, y: 0, z: 0}
--- !u!65 &5617411565967194776
BoxCollider:
  m_ObjectHideFlags: 0
  m_CorrespondingSourceObject: {fileID: 0}
  m_PrefabInstance: {fileID: 0}
  m_PrefabAsset: {fileID: 0}
  m_GameObject: {fileID: 3068745478710190746}
  m_Material: {fileID: 0}
  m_IsTrigger: 0
  m_Enabled: 1
  serializedVersion: 2
  m_Size: {x: 0.26414672, y: 3.2555733, z: 1.5417309}
  m_Center: {x: 0, y: -0.026695013, z: -2.1747923}
--- !u!1 &3207323246159803696
GameObject:
  m_ObjectHideFlags: 0
  m_CorrespondingSourceObject: {fileID: 0}
  m_PrefabInstance: {fileID: 0}
  m_PrefabAsset: {fileID: 0}
  serializedVersion: 6
  m_Component:
  - component: {fileID: 6116305449184701567}
  - component: {fileID: 4418293768011829482}
  m_Layer: 0
  m_Name: Collider9
  m_TagString: Untagged
  m_Icon: {fileID: 0}
  m_NavMeshLayer: 0
  m_StaticEditorFlags: 0
  m_IsActive: 1
--- !u!4 &6116305449184701567
Transform:
  m_ObjectHideFlags: 0
  m_CorrespondingSourceObject: {fileID: 0}
  m_PrefabInstance: {fileID: 0}
  m_PrefabAsset: {fileID: 0}
  m_GameObject: {fileID: 3207323246159803696}
  m_LocalRotation: {x: 0.00000008146034, y: -0, z: -0, w: 1}
  m_LocalPosition: {x: 0, y: -0.42730987, z: -4.6465607}
  m_LocalScale: {x: 0.8541423, y: 0.8541422, z: 0.8541422}
  m_ConstrainProportionsScale: 0
  m_Children: []
  m_Father: {fileID: 465015774684110104}
  m_RootOrder: 8
  m_LocalEulerAnglesHint: {x: 0, y: 0, z: 0}
--- !u!65 &4418293768011829482
BoxCollider:
  m_ObjectHideFlags: 0
  m_CorrespondingSourceObject: {fileID: 0}
  m_PrefabInstance: {fileID: 0}
  m_PrefabAsset: {fileID: 0}
  m_GameObject: {fileID: 3207323246159803696}
  m_Material: {fileID: 0}
  m_IsTrigger: 0
  m_Enabled: 1
  serializedVersion: 2
  m_Size: {x: 1.25, y: 1.25, z: 1.1412239}
  m_Center: {x: 0, y: -6.0850847e-18, z: -0.010450363}
--- !u!1 &3527694534751975884
GameObject:
  m_ObjectHideFlags: 0
  m_CorrespondingSourceObject: {fileID: 0}
  m_PrefabInstance: {fileID: 0}
  m_PrefabAsset: {fileID: 0}
  serializedVersion: 6
  m_Component:
  - component: {fileID: 4427130607771552530}
  - component: {fileID: 7314814649634340942}
  m_Layer: 0
  m_Name: Collider15
  m_TagString: Untagged
  m_Icon: {fileID: 0}
  m_NavMeshLayer: 0
  m_StaticEditorFlags: 0
  m_IsActive: 1
--- !u!4 &4427130607771552530
Transform:
  m_ObjectHideFlags: 0
  m_CorrespondingSourceObject: {fileID: 0}
  m_PrefabInstance: {fileID: 0}
  m_PrefabAsset: {fileID: 0}
  m_GameObject: {fileID: 3527694534751975884}
  m_LocalRotation: {x: 0.000000036553597, y: 0.00000007066097, z: -0.8643813, w: 0.50283694}
  m_LocalPosition: {x: 1.2455616, y: -1.1238114, z: -2.0079956}
  m_LocalScale: {x: 0.67, y: 0.67, z: 0.67}
  m_ConstrainProportionsScale: 0
  m_Children: []
  m_Father: {fileID: 465015774684110104}
  m_RootOrder: 14
  m_LocalEulerAnglesHint: {x: 0, y: 0, z: 0}
--- !u!65 &7314814649634340942
BoxCollider:
  m_ObjectHideFlags: 0
  m_CorrespondingSourceObject: {fileID: 0}
  m_PrefabInstance: {fileID: 0}
  m_PrefabAsset: {fileID: 0}
  m_GameObject: {fileID: 3527694534751975884}
  m_Material: {fileID: 0}
  m_IsTrigger: 0
  m_Enabled: 1
  serializedVersion: 2
  m_Size: {x: 0.26414672, y: 1.050695, z: 4.3737807}
  m_Center: {x: 0, y: -1.1291342, z: -0.75876737}
--- !u!1 &3935275204280118186
GameObject:
  m_ObjectHideFlags: 0
  m_CorrespondingSourceObject: {fileID: 0}
  m_PrefabInstance: {fileID: 0}
  m_PrefabAsset: {fileID: 0}
  serializedVersion: 6
  m_Component:
  - component: {fileID: 1944534562664816664}
  - component: {fileID: 354075997522599090}
  m_Layer: 0
  m_Name: Collider28
  m_TagString: Untagged
  m_Icon: {fileID: 0}
  m_NavMeshLayer: 0
  m_StaticEditorFlags: 0
  m_IsActive: 1
--- !u!4 &1944534562664816664
Transform:
  m_ObjectHideFlags: 0
  m_CorrespondingSourceObject: {fileID: 0}
  m_PrefabInstance: {fileID: 0}
  m_PrefabAsset: {fileID: 0}
  m_GameObject: {fileID: 3935275204280118186}
  m_LocalRotation: {x: -0.22388437, y: -0.11367299, z: 0.49548805, w: 0.83153224}
  m_LocalPosition: {x: -4.0820007, y: 1.637, z: -4.949997}
  m_LocalScale: {x: 0.7208701, y: 0.72087, z: 0.7208701}
  m_ConstrainProportionsScale: 0
  m_Children: []
  m_Father: {fileID: 465015774684110104}
  m_RootOrder: 27
  m_LocalEulerAnglesHint: {x: -4.6070004, y: 0, z: 0}
--- !u!65 &354075997522599090
BoxCollider:
  m_ObjectHideFlags: 0
  m_CorrespondingSourceObject: {fileID: 0}
  m_PrefabInstance: {fileID: 0}
  m_PrefabAsset: {fileID: 0}
  m_GameObject: {fileID: 3935275204280118186}
  m_Material: {fileID: 0}
  m_IsTrigger: 0
  m_Enabled: 1
  serializedVersion: 2
  m_Size: {x: 0.14684956, y: 2.9228678, z: 0.5748577}
  m_Center: {x: 0, y: -0.045166373, z: -0.12998867}
--- !u!1 &3994723478496294955
GameObject:
  m_ObjectHideFlags: 0
  m_CorrespondingSourceObject: {fileID: 0}
  m_PrefabInstance: {fileID: 0}
  m_PrefabAsset: {fileID: 0}
  serializedVersion: 6
  m_Component:
  - component: {fileID: 908612060428538452}
  - component: {fileID: 7774212026989256593}
  m_Layer: 0
  m_Name: Collider21
  m_TagString: Untagged
  m_Icon: {fileID: 0}
  m_NavMeshLayer: 0
  m_StaticEditorFlags: 0
  m_IsActive: 1
--- !u!4 &908612060428538452
Transform:
  m_ObjectHideFlags: 0
  m_CorrespondingSourceObject: {fileID: 0}
  m_PrefabInstance: {fileID: 0}
  m_PrefabAsset: {fileID: 0}
  m_GameObject: {fileID: 3994723478496294955}
  m_LocalRotation: {x: -0.2451613, y: 0.14154391, z: -0.47954676, w: 0.83059996}
  m_LocalPosition: {x: 1.8330002, y: 0.416, z: -3.4369965}
  m_LocalScale: {x: 1.1107106, y: 1.1107107, z: 1.110711}
  m_ConstrainProportionsScale: 0
  m_Children: []
  m_Father: {fileID: 465015774684110104}
  m_RootOrder: 20
  m_LocalEulerAnglesHint: {x: -4.6070004, y: 0, z: 0}
--- !u!65 &7774212026989256593
BoxCollider:
  m_ObjectHideFlags: 0
  m_CorrespondingSourceObject: {fileID: 0}
  m_PrefabInstance: {fileID: 0}
  m_PrefabAsset: {fileID: 0}
  m_GameObject: {fileID: 3994723478496294955}
  m_Material: {fileID: 0}
  m_IsTrigger: 0
  m_Enabled: 1
  serializedVersion: 2
  m_Size: {x: 0.14684956, y: 2.9228678, z: 0.5748577}
  m_Center: {x: 0, y: -0.045166373, z: -0.12998867}
--- !u!1 &4108803232461325813
GameObject:
  m_ObjectHideFlags: 0
  m_CorrespondingSourceObject: {fileID: 0}
  m_PrefabInstance: {fileID: 0}
  m_PrefabAsset: {fileID: 0}
  serializedVersion: 6
  m_Component:
  - component: {fileID: 6487862872623573702}
  - component: {fileID: 39693507637138113}
  m_Layer: 0
  m_Name: Collider19
  m_TagString: Untagged
  m_Icon: {fileID: 0}
  m_NavMeshLayer: 0
  m_StaticEditorFlags: 0
  m_IsActive: 1
--- !u!4 &6487862872623573702
Transform:
  m_ObjectHideFlags: 0
  m_CorrespondingSourceObject: {fileID: 0}
  m_PrefabInstance: {fileID: 0}
  m_PrefabAsset: {fileID: 0}
  m_GameObject: {fileID: 4108803232461325813}
  m_LocalRotation: {x: -0.20637487, y: 0.25110927, z: -0.75605303, w: 0.56809986}
  m_LocalPosition: {x: 2.8079987, y: -1.883, z: -3.7440033}
  m_LocalScale: {x: 0.3587585, y: 0.3587585, z: 0.3587585}
  m_ConstrainProportionsScale: 0
  m_Children: []
  m_Father: {fileID: 465015774684110104}
  m_RootOrder: 18
  m_LocalEulerAnglesHint: {x: -4.6070004, y: 0, z: 0}
--- !u!65 &39693507637138113
BoxCollider:
  m_ObjectHideFlags: 0
  m_CorrespondingSourceObject: {fileID: 0}
  m_PrefabInstance: {fileID: 0}
  m_PrefabAsset: {fileID: 0}
  m_GameObject: {fileID: 4108803232461325813}
  m_Material: {fileID: 0}
  m_IsTrigger: 0
  m_Enabled: 1
  serializedVersion: 2
  m_Size: {x: 0.14684956, y: 2.9228678, z: 0.5748577}
  m_Center: {x: 0, y: -0.045166373, z: -0.12998867}
--- !u!1 &5089562244742764828
GameObject:
  m_ObjectHideFlags: 0
  m_CorrespondingSourceObject: {fileID: 0}
  m_PrefabInstance: {fileID: 0}
  m_PrefabAsset: {fileID: 0}
  serializedVersion: 6
  m_Component:
  - component: {fileID: 2176148467665726525}
  - component: {fileID: 2440852071841554968}
  m_Layer: 0
  m_Name: Collider2
  m_TagString: Untagged
  m_Icon: {fileID: 0}
  m_NavMeshLayer: 0
  m_StaticEditorFlags: 0
  m_IsActive: 1
--- !u!4 &2176148467665726525
Transform:
  m_ObjectHideFlags: 0
  m_CorrespondingSourceObject: {fileID: 0}
  m_PrefabInstance: {fileID: 0}
  m_PrefabAsset: {fileID: 0}
  m_GameObject: {fileID: 5089562244742764828}
  m_LocalRotation: {x: -0.016519237, y: -0, z: -0, w: 0.9998636}
  m_LocalPosition: {x: 0, y: -0.35510772, z: 0.7675781}
  m_LocalScale: {x: 1, y: 1, z: 1}
  m_ConstrainProportionsScale: 0
  m_Children: []
  m_Father: {fileID: 465015774684110104}
  m_RootOrder: 1
  m_LocalEulerAnglesHint: {x: -1.8930001, y: 0, z: 0}
--- !u!65 &2440852071841554968
BoxCollider:
  m_ObjectHideFlags: 0
  m_CorrespondingSourceObject: {fileID: 0}
  m_PrefabInstance: {fileID: 0}
  m_PrefabAsset: {fileID: 0}
  m_GameObject: {fileID: 5089562244742764828}
  m_Material: {fileID: 0}
  m_IsTrigger: 0
  m_Enabled: 1
  serializedVersion: 2
  m_Size: {x: 1.1280515, y: 0.71514803, z: 5.757826}
  m_Center: {x: 0, y: -0.13213134, z: 1.5574371}
--- !u!1 &5331576113751475043
GameObject:
  m_ObjectHideFlags: 0
  m_CorrespondingSourceObject: {fileID: 0}
  m_PrefabInstance: {fileID: 0}
  m_PrefabAsset: {fileID: 0}
  serializedVersion: 6
  m_Component:
  - component: {fileID: 3921634009308385041}
  - component: {fileID: 3041023309452851944}
  m_Layer: 0
  m_Name: Collider22
  m_TagString: Untagged
  m_Icon: {fileID: 0}
  m_NavMeshLayer: 0
  m_StaticEditorFlags: 0
  m_IsActive: 1
--- !u!4 &3921634009308385041
Transform:
  m_ObjectHideFlags: 0
  m_CorrespondingSourceObject: {fileID: 0}
  m_PrefabInstance: {fileID: 0}
  m_PrefabAsset: {fileID: 0}
  m_GameObject: {fileID: 5331576113751475043}
  m_LocalRotation: {x: -0.04068384, y: 0.08485932, z: -0.32127535, w: 0.9422982}
  m_LocalPosition: {x: 0.83200073, y: 0.519, z: -3.7949982}
  m_LocalScale: {x: 0.43796164, y: 0.4379617, z: 0.43796167}
  m_ConstrainProportionsScale: 0
  m_Children: []
  m_Father: {fileID: 465015774684110104}
  m_RootOrder: 21
  m_LocalEulerAnglesHint: {x: -4.6070004, y: 0, z: 0}
--- !u!65 &3041023309452851944
BoxCollider:
  m_ObjectHideFlags: 0
  m_CorrespondingSourceObject: {fileID: 0}
  m_PrefabInstance: {fileID: 0}
  m_PrefabAsset: {fileID: 0}
  m_GameObject: {fileID: 5331576113751475043}
  m_Material: {fileID: 0}
  m_IsTrigger: 0
  m_Enabled: 1
  serializedVersion: 2
  m_Size: {x: 0.14684956, y: 2.9228678, z: 0.5748577}
  m_Center: {x: 0, y: -0.045166373, z: -0.12998867}
--- !u!1 &5601769046591078134
GameObject:
  m_ObjectHideFlags: 0
  m_CorrespondingSourceObject: {fileID: 0}
  m_PrefabInstance: {fileID: 0}
  m_PrefabAsset: {fileID: 0}
  serializedVersion: 6
  m_Component:
  - component: {fileID: 27090747862184743}
  - component: {fileID: 7297880166161065032}
  m_Layer: 0
  m_Name: Collider26
  m_TagString: Untagged
  m_Icon: {fileID: 0}
  m_NavMeshLayer: 0
  m_StaticEditorFlags: 0
  m_IsActive: 1
--- !u!4 &27090747862184743
Transform:
  m_ObjectHideFlags: 0
  m_CorrespondingSourceObject: {fileID: 0}
  m_PrefabInstance: {fileID: 0}
  m_PrefabAsset: {fileID: 0}
  m_GameObject: {fileID: 5601769046591078134}
  m_LocalRotation: {x: 0.04068384, y: 0.08485933, z: -0.32127544, w: -0.94229823}
  m_LocalPosition: {x: -0.83200073, y: 0.519, z: -3.7949982}
  m_LocalScale: {x: 0.43795997, y: 0.43796003, z: 0.43796}
  m_ConstrainProportionsScale: 0
  m_Children: []
  m_Father: {fileID: 465015774684110104}
  m_RootOrder: 25
  m_LocalEulerAnglesHint: {x: -4.6070004, y: 0, z: 0}
--- !u!65 &7297880166161065032
BoxCollider:
  m_ObjectHideFlags: 0
  m_CorrespondingSourceObject: {fileID: 0}
  m_PrefabInstance: {fileID: 0}
  m_PrefabAsset: {fileID: 0}
  m_GameObject: {fileID: 5601769046591078134}
  m_Material: {fileID: 0}
  m_IsTrigger: 0
  m_Enabled: 1
  serializedVersion: 2
  m_Size: {x: 0.14684956, y: 2.9228678, z: 0.5748577}
  m_Center: {x: 0, y: -0.045166373, z: -0.12998867}
--- !u!1 &5846165474445839871
GameObject:
  m_ObjectHideFlags: 0
  m_CorrespondingSourceObject: {fileID: 0}
  m_PrefabInstance: {fileID: 0}
  m_PrefabAsset: {fileID: 0}
  serializedVersion: 6
  m_Component:
  - component: {fileID: 1377606334308785217}
  - component: {fileID: 6608849583979095954}
  m_Layer: 0
  m_Name: Collider24
  m_TagString: Untagged
  m_Icon: {fileID: 0}
  m_NavMeshLayer: 0
  m_StaticEditorFlags: 0
  m_IsActive: 1
--- !u!4 &1377606334308785217
Transform:
  m_ObjectHideFlags: 0
  m_CorrespondingSourceObject: {fileID: 0}
  m_PrefabInstance: {fileID: 0}
  m_PrefabAsset: {fileID: 0}
  m_GameObject: {fileID: 5846165474445839871}
  m_LocalRotation: {x: -0.19429767, y: -0.1370558, z: 0.5529207, w: 0.79858804}
  m_LocalPosition: {x: -1.4200001, y: -0.074, z: -0.08099365}
  m_LocalScale: {x: 0.8900006, y: 0.89000034, z: 0.89}
  m_ConstrainProportionsScale: 0
  m_Children: []
  m_Father: {fileID: 465015774684110104}
  m_RootOrder: 23
  m_LocalEulerAnglesHint: {x: -4.6070004, y: 0, z: 0}
--- !u!65 &6608849583979095954
BoxCollider:
  m_ObjectHideFlags: 0
  m_CorrespondingSourceObject: {fileID: 0}
  m_PrefabInstance: {fileID: 0}
  m_PrefabAsset: {fileID: 0}
  m_GameObject: {fileID: 5846165474445839871}
  m_Material: {fileID: 0}
  m_IsTrigger: 0
  m_Enabled: 1
  serializedVersion: 2
  m_Size: {x: 0.14684956, y: 2.9228678, z: 0.5748577}
  m_Center: {x: 0, y: -0.045166373, z: -0.12998867}
--- !u!1 &5911827184989269357
GameObject:
  m_ObjectHideFlags: 0
  m_CorrespondingSourceObject: {fileID: 0}
  m_PrefabInstance: {fileID: 0}
  m_PrefabAsset: {fileID: 0}
  serializedVersion: 6
  m_Component:
  - component: {fileID: 8105919288450590671}
  - component: {fileID: 6640730869699850343}
  m_Layer: 0
  m_Name: Collider18
  m_TagString: Untagged
  m_Icon: {fileID: 0}
  m_NavMeshLayer: 0
  m_StaticEditorFlags: 0
  m_IsActive: 1
--- !u!4 &8105919288450590671
Transform:
  m_ObjectHideFlags: 0
  m_CorrespondingSourceObject: {fileID: 0}
  m_PrefabInstance: {fileID: 0}
  m_PrefabAsset: {fileID: 0}
  m_GameObject: {fileID: 5911827184989269357}
  m_LocalRotation: {x: -0.000000036553587, y: 0.000000070660974, z: -0.8643814, w: -0.5028368}
  m_LocalPosition: {x: -1.2455616, y: -1.1238114, z: -2.0079956}
  m_LocalScale: {x: 0.6700001, y: 0.67000014, z: 0.66999996}
  m_ConstrainProportionsScale: 0
  m_Children: []
  m_Father: {fileID: 465015774684110104}
  m_RootOrder: 17
  m_LocalEulerAnglesHint: {x: 0, y: 0, z: 0}
--- !u!65 &6640730869699850343
BoxCollider:
  m_ObjectHideFlags: 0
  m_CorrespondingSourceObject: {fileID: 0}
  m_PrefabInstance: {fileID: 0}
  m_PrefabAsset: {fileID: 0}
  m_GameObject: {fileID: 5911827184989269357}
  m_Material: {fileID: 0}
  m_IsTrigger: 0
  m_Enabled: 1
  serializedVersion: 2
  m_Size: {x: 0.26414672, y: 1.050695, z: 4.3737807}
  m_Center: {x: 0, y: -1.1291342, z: -0.75876737}
--- !u!1 &5942911580595980536
GameObject:
  m_ObjectHideFlags: 0
  m_CorrespondingSourceObject: {fileID: 0}
  m_PrefabInstance: {fileID: 0}
  m_PrefabAsset: {fileID: 0}
  serializedVersion: 6
  m_Component:
  - component: {fileID: 3782254309986405966}
  - component: {fileID: 7870739628648530922}
  m_Layer: 0
  m_Name: Collider12
  m_TagString: Untagged
  m_Icon: {fileID: 0}
  m_NavMeshLayer: 0
  m_StaticEditorFlags: 0
  m_IsActive: 1
--- !u!4 &3782254309986405966
Transform:
  m_ObjectHideFlags: 0
  m_CorrespondingSourceObject: {fileID: 0}
  m_PrefabInstance: {fileID: 0}
  m_PrefabAsset: {fileID: 0}
  m_GameObject: {fileID: 5942911580595980536}
  m_LocalRotation: {x: 0.00000008144259, y: -0.02087257, z: -0.0000000017002868, w: 0.99978215}
  m_LocalPosition: {x: -0.9424114, y: -0.6273419, z: 3.2189178}
  m_LocalScale: {x: 0.72016, y: 0.72016, z: 0.72016}
  m_ConstrainProportionsScale: 0
  m_Children: []
  m_Father: {fileID: 465015774684110104}
  m_RootOrder: 11
  m_LocalEulerAnglesHint: {x: 0, y: -2.392, z: 0}
--- !u!65 &7870739628648530922
BoxCollider:
  m_ObjectHideFlags: 0
  m_CorrespondingSourceObject: {fileID: 0}
  m_PrefabInstance: {fileID: 0}
  m_PrefabAsset: {fileID: 0}
  m_GameObject: {fileID: 5942911580595980536}
  m_Material: {fileID: 0}
  m_IsTrigger: 0
  m_Enabled: 1
  serializedVersion: 2
  m_Size: {x: 0.44078326, y: 0.36600667, z: 4.1072435}
  m_Center: {x: 0.01956641, y: 0, z: 0.0034687521}
--- !u!1 &6101793794232300259
GameObject:
  m_ObjectHideFlags: 0
  m_CorrespondingSourceObject: {fileID: 0}
  m_PrefabInstance: {fileID: 0}
  m_PrefabAsset: {fileID: 0}
  serializedVersion: 6
  m_Component:
  - component: {fileID: 4067971588422230663}
  - component: {fileID: 8626296282463049724}
  m_Layer: 0
  m_Name: Collider23
  m_TagString: Untagged
  m_Icon: {fileID: 0}
  m_NavMeshLayer: 0
  m_StaticEditorFlags: 0
  m_IsActive: 1
--- !u!4 &4067971588422230663
Transform:
  m_ObjectHideFlags: 0
  m_CorrespondingSourceObject: {fileID: 0}
  m_PrefabInstance: {fileID: 0}
  m_PrefabAsset: {fileID: 0}
  m_GameObject: {fileID: 6101793794232300259}
  m_LocalRotation: {x: -0.1942976, y: 0.13705584, z: -0.55292076, w: 0.79858804}
  m_LocalPosition: {x: 1.4200001, y: -0.074, z: -0.08099365}
  m_LocalScale: {x: 0.8900001, y: 0.89000005, z: 0.8900001}
  m_ConstrainProportionsScale: 0
  m_Children: []
  m_Father: {fileID: 465015774684110104}
  m_RootOrder: 22
  m_LocalEulerAnglesHint: {x: -4.6070004, y: 0, z: 0}
--- !u!65 &8626296282463049724
BoxCollider:
  m_ObjectHideFlags: 0
  m_CorrespondingSourceObject: {fileID: 0}
  m_PrefabInstance: {fileID: 0}
  m_PrefabAsset: {fileID: 0}
  m_GameObject: {fileID: 6101793794232300259}
  m_Material: {fileID: 0}
  m_IsTrigger: 0
  m_Enabled: 1
  serializedVersion: 2
  m_Size: {x: 0.14684956, y: 2.9228678, z: 0.5748577}
  m_Center: {x: 0, y: -0.045166373, z: -0.12998867}
--- !u!1 &6742458306453039945
GameObject:
  m_ObjectHideFlags: 0
  m_CorrespondingSourceObject: {fileID: 0}
  m_PrefabInstance: {fileID: 0}
  m_PrefabAsset: {fileID: 0}
  serializedVersion: 6
  m_Component:
  - component: {fileID: 465015774684110104}
  m_Layer: 0
  m_Name: Collider
  m_TagString: Untagged
  m_Icon: {fileID: 0}
  m_NavMeshLayer: 0
  m_StaticEditorFlags: 0
  m_IsActive: 1
--- !u!4 &465015774684110104
Transform:
  m_ObjectHideFlags: 0
  m_CorrespondingSourceObject: {fileID: 0}
  m_PrefabInstance: {fileID: 0}
  m_PrefabAsset: {fileID: 0}
  m_GameObject: {fileID: 6742458306453039945}
  m_LocalRotation: {x: -0.000000021855694, y: -0, z: -0, w: 1}
  m_LocalPosition: {x: 0, y: 0, z: 0}
  m_LocalScale: {x: 1, y: 1, z: 1}
  m_ConstrainProportionsScale: 0
  m_Children:
  - {fileID: 1856234059207516727}
  - {fileID: 2176148467665726525}
  - {fileID: 1063159202260049611}
  - {fileID: 4993554858079887929}
  - {fileID: 8947903996450184589}
  - {fileID: 4740560656759169421}
  - {fileID: 1135571869222452369}
  - {fileID: 657509411684390664}
  - {fileID: 6116305449184701567}
  - {fileID: 4593985771851065130}
  - {fileID: 8535431266858891750}
  - {fileID: 3782254309986405966}
  - {fileID: 2444641575794703243}
  - {fileID: 7113495582405091774}
  - {fileID: 4427130607771552530}
  - {fileID: 8822341714116422456}
  - {fileID: 829231782632656891}
  - {fileID: 8105919288450590671}
  - {fileID: 6487862872623573702}
  - {fileID: 7054884273304118009}
  - {fileID: 908612060428538452}
  - {fileID: 3921634009308385041}
  - {fileID: 4067971588422230663}
  - {fileID: 1377606334308785217}
  - {fileID: 1748129366446820744}
  - {fileID: 27090747862184743}
  - {fileID: 5421632119861258491}
  - {fileID: 1944534562664816664}
  m_Father: {fileID: 4889076547100212}
  m_RootOrder: 0
  m_LocalEulerAnglesHint: {x: 0, y: 0, z: 0}
--- !u!1 &6978557787910103734
GameObject:
  m_ObjectHideFlags: 0
  m_CorrespondingSourceObject: {fileID: 0}
  m_PrefabInstance: {fileID: 0}
  m_PrefabAsset: {fileID: 0}
  serializedVersion: 6
  m_Component:
  - component: {fileID: 4740560656759169421}
  - component: {fileID: 6351928611364545419}
  m_Layer: 0
  m_Name: Collider6
  m_TagString: Untagged
  m_Icon: {fileID: 0}
  m_NavMeshLayer: 0
  m_StaticEditorFlags: 0
  m_IsActive: 1
--- !u!4 &4740560656759169421
Transform:
  m_ObjectHideFlags: 0
  m_CorrespondingSourceObject: {fileID: 0}
  m_PrefabInstance: {fileID: 0}
  m_PrefabAsset: {fileID: 0}
  m_GameObject: {fileID: 6978557787910103734}
  m_LocalRotation: {x: 0.00000008146034, y: -0, z: -0, w: 1}
  m_LocalPosition: {x: 3.190628, y: 1.2098361, z: -4.055374}
  m_LocalScale: {x: 0.70374876, y: 0.7037486, z: 0.7037486}
  m_ConstrainProportionsScale: 0
  m_Children: []
  m_Father: {fileID: 465015774684110104}
  m_RootOrder: 5
  m_LocalEulerAnglesHint: {x: 0, y: 0, z: 0}
--- !u!65 &6351928611364545419
BoxCollider:
  m_ObjectHideFlags: 0
  m_CorrespondingSourceObject: {fileID: 0}
  m_PrefabInstance: {fileID: 0}
  m_PrefabAsset: {fileID: 0}
  m_GameObject: {fileID: 6978557787910103734}
  m_Material: {fileID: 0}
  m_IsTrigger: 0
  m_Enabled: 1
  serializedVersion: 2
  m_Size: {x: 1.0874813, y: 0.92567253, z: 3.7363143}
  m_Center: {x: 0, y: -0.037163734, z: 0.10587764}
--- !u!1 &7139797135726675437
GameObject:
  m_ObjectHideFlags: 0
  m_CorrespondingSourceObject: {fileID: 0}
  m_PrefabInstance: {fileID: 0}
  m_PrefabAsset: {fileID: 0}
  serializedVersion: 6
  m_Component:
  - component: {fileID: 657509411684390664}
  - component: {fileID: 5299145393804760089}
  m_Layer: 0
  m_Name: Collider8
  m_TagString: Untagged
  m_Icon: {fileID: 0}
  m_NavMeshLayer: 0
  m_StaticEditorFlags: 0
  m_IsActive: 1
--- !u!4 &657509411684390664
Transform:
  m_ObjectHideFlags: 0
  m_CorrespondingSourceObject: {fileID: 0}
  m_PrefabInstance: {fileID: 0}
  m_PrefabAsset: {fileID: 0}
  m_GameObject: {fileID: 7139797135726675437}
  m_LocalRotation: {x: 0.00000008146034, y: -0, z: -0, w: 1}
  m_LocalPosition: {x: 2.260994, y: -1.7119021, z: -4.1144104}
  m_LocalScale: {x: 0.46270242, y: 0.46270186, z: 0.46270186}
  m_ConstrainProportionsScale: 0
  m_Children: []
  m_Father: {fileID: 465015774684110104}
  m_RootOrder: 7
  m_LocalEulerAnglesHint: {x: 0, y: 0, z: 0}
--- !u!65 &5299145393804760089
BoxCollider:
  m_ObjectHideFlags: 0
  m_CorrespondingSourceObject: {fileID: 0}
  m_PrefabInstance: {fileID: 0}
  m_PrefabAsset: {fileID: 0}
  m_GameObject: {fileID: 7139797135726675437}
  m_Material: {fileID: 0}
  m_IsTrigger: 0
  m_Enabled: 1
  serializedVersion: 2
  m_Size: {x: 1.25, y: 1.25, z: 1.1412239}
  m_Center: {x: 0, y: -6.0850847e-18, z: -0.010450363}
--- !u!1 &7273490548762049004
GameObject:
  m_ObjectHideFlags: 0
  m_CorrespondingSourceObject: {fileID: 0}
  m_PrefabInstance: {fileID: 0}
  m_PrefabAsset: {fileID: 0}
  serializedVersion: 6
  m_Component:
  - component: {fileID: 5421632119861258491}
  - component: {fileID: 9093896094769468514}
  m_Layer: 0
  m_Name: Collider27
  m_TagString: Untagged
  m_Icon: {fileID: 0}
  m_NavMeshLayer: 0
  m_StaticEditorFlags: 0
  m_IsActive: 1
--- !u!4 &5421632119861258491
Transform:
  m_ObjectHideFlags: 0
  m_CorrespondingSourceObject: {fileID: 0}
  m_PrefabInstance: {fileID: 0}
  m_PrefabAsset: {fileID: 0}
  m_GameObject: {fileID: 7273490548762049004}
  m_LocalRotation: {x: -0.24516137, y: -0.1415439, z: 0.47954664, w: 0.83059996}
  m_LocalPosition: {x: -1.8330002, y: 0.416, z: -3.4369965}
  m_LocalScale: {x: 1.11071, y: 1.11071, z: 1.11071}
  m_ConstrainProportionsScale: 0
  m_Children: []
  m_Father: {fileID: 465015774684110104}
  m_RootOrder: 26
  m_LocalEulerAnglesHint: {x: -4.6070004, y: 0, z: 0}
--- !u!65 &9093896094769468514
BoxCollider:
  m_ObjectHideFlags: 0
  m_CorrespondingSourceObject: {fileID: 0}
  m_PrefabInstance: {fileID: 0}
  m_PrefabAsset: {fileID: 0}
  m_GameObject: {fileID: 7273490548762049004}
  m_Material: {fileID: 0}
  m_IsTrigger: 0
  m_Enabled: 1
  serializedVersion: 2
  m_Size: {x: 0.14684956, y: 2.9228678, z: 0.5748577}
  m_Center: {x: 0, y: -0.045166373, z: -0.12998867}
--- !u!1 &7894992402637341338
GameObject:
  m_ObjectHideFlags: 0
  m_CorrespondingSourceObject: {fileID: 0}
  m_PrefabInstance: {fileID: 0}
  m_PrefabAsset: {fileID: 0}
  serializedVersion: 6
  m_Component:
  - component: {fileID: 1856234059207516727}
  - component: {fileID: 3449108198076168530}
  m_Layer: 0
  m_Name: Collider1
  m_TagString: Untagged
  m_Icon: {fileID: 0}
  m_NavMeshLayer: 0
  m_StaticEditorFlags: 0
  m_IsActive: 1
--- !u!4 &1856234059207516727
Transform:
  m_ObjectHideFlags: 0
  m_CorrespondingSourceObject: {fileID: 0}
  m_PrefabInstance: {fileID: 0}
  m_PrefabAsset: {fileID: 0}
  m_GameObject: {fileID: 7894992402637341338}
  m_LocalRotation: {x: 0.00000008146034, y: -0, z: -0, w: 1}
  m_LocalPosition: {x: 0, y: -0.35510772, z: 0.7675781}
  m_LocalScale: {x: 1, y: 1, z: 1}
  m_ConstrainProportionsScale: 0
  m_Children: []
  m_Father: {fileID: 465015774684110104}
  m_RootOrder: 0
  m_LocalEulerAnglesHint: {x: 0, y: 0, z: 0}
--- !u!65 &3449108198076168530
BoxCollider:
  m_ObjectHideFlags: 0
  m_CorrespondingSourceObject: {fileID: 0}
  m_PrefabInstance: {fileID: 0}
  m_PrefabAsset: {fileID: 0}
  m_GameObject: {fileID: 7894992402637341338}
  m_Material: {fileID: 0}
  m_IsTrigger: 0
  m_Enabled: 1
  serializedVersion: 2
  m_Size: {x: 1.8151102, y: 1.1136751, z: 3.4628277}
  m_Center: {x: 0, y: -0.05683756, z: -3.035327}
--- !u!1 &8277336931244351645
GameObject:
  m_ObjectHideFlags: 0
  m_CorrespondingSourceObject: {fileID: 0}
  m_PrefabInstance: {fileID: 0}
  m_PrefabAsset: {fileID: 0}
  serializedVersion: 6
  m_Component:
  - component: {fileID: 8947903996450184589}
  - component: {fileID: 5941201343834832831}
  m_Layer: 0
  m_Name: Collider5
  m_TagString: Untagged
  m_Icon: {fileID: 0}
  m_NavMeshLayer: 0
  m_StaticEditorFlags: 0
  m_IsActive: 1
--- !u!4 &8947903996450184589
Transform:
  m_ObjectHideFlags: 0
  m_CorrespondingSourceObject: {fileID: 0}
  m_PrefabInstance: {fileID: 0}
  m_PrefabAsset: {fileID: 0}
  m_GameObject: {fileID: 8277336931244351645}
  m_LocalRotation: {x: 0.00000008146034, y: -0, z: -0, w: 1}
  m_LocalPosition: {x: -2.2609959, y: -1.7118996, z: -2.8460388}
  m_LocalScale: {x: 0.61755, y: 0.61754996, z: 0.61754996}
  m_ConstrainProportionsScale: 0
  m_Children: []
  m_Father: {fileID: 465015774684110104}
  m_RootOrder: 4
  m_LocalEulerAnglesHint: {x: 0, y: 0, z: 0}
--- !u!65 &5941201343834832831
BoxCollider:
  m_ObjectHideFlags: 0
  m_CorrespondingSourceObject: {fileID: 0}
  m_PrefabInstance: {fileID: 0}
  m_PrefabAsset: {fileID: 0}
  m_GameObject: {fileID: 8277336931244351645}
  m_Material: {fileID: 0}
  m_IsTrigger: 0
  m_Enabled: 1
  serializedVersion: 2
  m_Size: {x: 1, y: 1, z: 2.8048668}
  m_Center: {x: 0, y: 7.2113e-17, z: -0.13104439}
--- !u!1 &8362244218662582903
GameObject:
  m_ObjectHideFlags: 0
  m_CorrespondingSourceObject: {fileID: 0}
  m_PrefabInstance: {fileID: 0}
  m_PrefabAsset: {fileID: 0}
  serializedVersion: 6
  m_Component:
  - component: {fileID: 1063159202260049611}
  - component: {fileID: 5710088342299616586}
  m_Layer: 0
  m_Name: Collider3
  m_TagString: Untagged
  m_Icon: {fileID: 0}
  m_NavMeshLayer: 0
  m_StaticEditorFlags: 0
  m_IsActive: 1
--- !u!4 &1063159202260049611
Transform:
  m_ObjectHideFlags: 0
  m_CorrespondingSourceObject: {fileID: 0}
  m_PrefabInstance: {fileID: 0}
  m_PrefabAsset: {fileID: 0}
  m_GameObject: {fileID: 8362244218662582903}
  m_LocalRotation: {x: -0.016519237, y: -0, z: -0, w: 0.9998636}
  m_LocalPosition: {x: 0, y: -0.35510772, z: 0.7675781}
  m_LocalScale: {x: 1, y: 0.99999994, z: 0.99999994}
  m_ConstrainProportionsScale: 0
  m_Children: []
  m_Father: {fileID: 465015774684110104}
  m_RootOrder: 2
  m_LocalEulerAnglesHint: {x: -1.8930001, y: 0, z: 0}
--- !u!65 &5710088342299616586
BoxCollider:
  m_ObjectHideFlags: 0
  m_CorrespondingSourceObject: {fileID: 0}
  m_PrefabInstance: {fileID: 0}
  m_PrefabAsset: {fileID: 0}
  m_GameObject: {fileID: 8362244218662582903}
  m_Material: {fileID: 0}
  m_IsTrigger: 0
  m_Enabled: 1
  serializedVersion: 2
  m_Size: {x: 0.6438029, y: 0.36763993, z: 3.9845037}
  m_Center: {x: 0, y: 0.3722459, z: 0.68551546}
--- !u!1 &8692269704173722294
GameObject:
  m_ObjectHideFlags: 0
  m_CorrespondingSourceObject: {fileID: 0}
  m_PrefabInstance: {fileID: 0}
  m_PrefabAsset: {fileID: 0}
  serializedVersion: 6
  m_Component:
  - component: {fileID: 7054884273304118009}
  - component: {fileID: 3508716615176238113}
  m_Layer: 0
  m_Name: Collider20
  m_TagString: Untagged
  m_Icon: {fileID: 0}
  m_NavMeshLayer: 0
  m_StaticEditorFlags: 0
  m_IsActive: 1
--- !u!4 &7054884273304118009
Transform:
  m_ObjectHideFlags: 0
  m_CorrespondingSourceObject: {fileID: 0}
  m_PrefabInstance: {fileID: 0}
  m_PrefabAsset: {fileID: 0}
  m_GameObject: {fileID: 8692269704173722294}
  m_LocalRotation: {x: -0.22388433, y: 0.113673, z: -0.4954881, w: 0.83153224}
  m_LocalPosition: {x: 4.0820007, y: 1.637, z: -4.949997}
  m_LocalScale: {x: 0.72087246, y: 0.7208724, z: 0.7208724}
  m_ConstrainProportionsScale: 0
  m_Children: []
  m_Father: {fileID: 465015774684110104}
  m_RootOrder: 19
  m_LocalEulerAnglesHint: {x: -4.6070004, y: 0, z: 0}
--- !u!65 &3508716615176238113
BoxCollider:
  m_ObjectHideFlags: 0
  m_CorrespondingSourceObject: {fileID: 0}
  m_PrefabInstance: {fileID: 0}
  m_PrefabAsset: {fileID: 0}
  m_GameObject: {fileID: 8692269704173722294}
  m_Material: {fileID: 0}
  m_IsTrigger: 0
  m_Enabled: 1
  serializedVersion: 2
  m_Size: {x: 0.14684956, y: 2.9228678, z: 0.5748577}
  m_Center: {x: 0, y: -0.045166373, z: -0.12998867}
